<svg id="int" xmlns="http://www.w3.org/2000/svg" xmlns:xlink="http://www.w3.org/1999/xlink" viewBox="0 0 188.4 188.4" shape-rendering="geometricPrecision" text-rendering="geometricPrecision">

<polygon id="int-u-colgs" points="-32.608953,-38.963016 -21.448953,-36.483016 -10.678963,-32.850679 -0.392561,-27.808326 -7.395828,-15.900204 -15.815828,-19.940204 -25.755828,-23.280204 -35.055828,-25.140204 -45.095828,-25.880204 -45.108953,-39.783016 -32.608953,-38.963016" transform="matrix(-1 0 0 1 48.381024 41.29683)" fill="#57a8ff" stroke-width="0"/>

</svg>