<svg id="int" xmlns="http://www.w3.org/2000/svg" xmlns:xlink="http://www.w3.org/1999/xlink" viewBox="0 0 188.4 188.4" shape-rendering="geometricPrecision" text-rendering="geometricPrecision">

<polygon id="int-u-cold" points="-32.728053,-38.972114 -21.579281,-36.611832 -10.689052,-32.864478 -0.444056,-27.872283 -7.406613,-15.638028 -15.840071,-19.766173 -25.774178,-23.187921 -35.082805,-25.064364 -45.030787,-25.90193 -45.075873,-39.787213 -32.728053,-38.972114" transform="matrix(1 0 0-1 140.374362 147.090943)" fill="#0200dc" stroke-width="0"/>

</svg>